<svg width="77" height="77" viewBox="0 0 77 77" fill="none" xmlns="http://www.w3.org/2000/svg">
<g clip-path="url(#clip0)">
<path d="M76.2926 45.983C76.2248 45.8313 76.1278 45.6939 76.0078 45.5795L76.0153 45.5714L70.0747 39.6308C67.1616 36.714 63.7462 34.3473 59.9926 32.644L51.6624 28.8575L46.7326 23.9277C46.4945 23.689 46.1713 23.5541 45.8337 23.5535H37.5582C35.8001 23.5535 34.3753 24.9783 34.3753 26.7364C34.3753 28.4944 35.8001 29.9193 37.5582 29.9193H42.0142V32.9517L37.8945 35.0119H12.3866C10.4687 35.0144 8.91398 36.5685 8.91211 38.4864V39.049C8.90963 39.9379 9.21921 40.8002 9.78803 41.4834L7.00237 45.1972H3.81948C1.71019 45.1972 0 46.9074 0 49.0166C0 51.1259 1.71019 52.8361 3.81948 52.8361H67.3873C69.4139 52.8417 71.3585 52.0367 72.7876 50.5994L76.0165 47.3705C76.3808 47.0062 76.4896 46.4585 76.2926 45.983ZM52.9492 41.6823C56.5866 40.687 60.4371 40.794 64.0129 41.9888L66.8775 42.9437C68.4472 43.4708 69.9286 44.2299 71.2727 45.1972H42.7975C46.1023 43.8078 49.4934 42.6341 52.9492 41.6823ZM67.0646 40.3221L64.8192 39.5736C61.1999 38.3664 57.3251 38.1407 53.5896 38.919L50.4172 36.5399C49.8546 36.1178 49.0564 36.2316 48.6349 36.7942C48.2128 37.3568 48.3266 38.155 48.8892 38.5771L50.4757 39.7657C48.7058 40.2917 46.9515 40.8673 45.2164 41.5064L40.3438 36.6338L50.9531 31.3298L58.9396 34.9597C61.908 36.3186 64.6483 38.1277 67.0646 40.3221ZM37.5582 27.3729C37.2063 27.3729 36.9216 27.0882 36.9216 26.7364C36.9216 26.3851 37.2063 26.0998 37.5582 26.0998H42.0142V27.3729H37.5582ZM44.5606 26.0998H45.3066L48.7773 29.5705L44.5606 31.6786V26.0998ZM11.4584 38.4864C11.4591 37.9741 11.8743 37.5588 12.3866 37.5582H37.6676L42.6253 42.516C40.5944 43.3409 38.587 44.2205 36.6276 45.1972H30.7224L12.1168 40.232L11.8314 39.9466C11.5933 39.7085 11.4591 39.3859 11.4584 39.049V38.4864ZM11.9676 42.8293L20.8405 45.1972H10.1853L11.9676 42.8293ZM70.9942 48.7991C70.0393 49.7583 68.74 50.2954 67.3873 50.2898H3.81948C3.11638 50.2898 2.54632 49.7197 2.54632 49.0166C2.54632 48.3136 3.11638 47.7435 3.81948 47.7435H72.0429L70.9942 48.7991Z" fill="white"/>
</g>
<defs>
<clipPath id="clip0">
<rect width="76.3895" height="76.3895" fill="white"/>
</clipPath>
</defs>
</svg>
